%YAML 1.1
%TAG !u! tag:unity3d.com,2011:
--- !u!74 &7400000
AnimationClip:
  m_ObjectHideFlags: 0
  m_CorrespondingSourceObject: {fileID: 0}
  m_PrefabInstance: {fileID: 0}
  m_PrefabAsset: {fileID: 0}
  m_Name: endCinematic
  serializedVersion: 6
  m_Legacy: 0
  m_Compressed: 0
  m_UseHighQualityCurve: 1
  m_RotationCurves: []
  m_CompressedRotationCurves: []
  m_EulerCurves: []
  m_PositionCurves: []
  m_ScaleCurves: []
  m_FloatCurves: []
  m_PPtrCurves:
  - curve:
    - time: 0
      value: {fileID: 21300000, guid: e91f268b0096a8f468f3247d1c0d0626, type: 3}
    - time: 0.016666668
      value: {fileID: 21300000, guid: 813992b61c910e84f95bde301c2f329e, type: 3}
    - time: 0.033333335
      value: {fileID: 21300000, guid: ff1f7523a5d198a4ca90cf7591c4d1da, type: 3}
    - time: 0.05
      value: {fileID: 21300000, guid: d757afae24eabbc439ec58f210a0309c, type: 3}
    - time: 0.06666667
      value: {fileID: 21300000, guid: 8ee74175ebb9e354d9cf6dc80ce38b46, type: 3}
    - time: 0.083333336
      value: {fileID: 21300000, guid: 8115ef3d8d5c42548954f349c6ef468e, type: 3}
    - time: 0.1
      value: {fileID: 21300000, guid: 45d552385f0f6e04eafee333f3fca5e6, type: 3}
    - time: 0.11666667
      value: {fileID: 21300000, guid: 14330eea7cef74248b3348e52b4facbe, type: 3}
    - time: 0.13333334
      value: {fileID: 21300000, guid: e0157c777b1ca224f8c1f3389d2c386d, type: 3}
    - time: 0.15
      value: {fileID: 21300000, guid: 682fc3d1564e33449a4e6272d4d5242f, type: 3}
    - time: 0.16666667
      value: {fileID: 21300000, guid: 1ac4139d0f9440240986b6de9408927b, type: 3}
    - time: 0.18333334
      value: {fileID: 21300000, guid: f07080c4f054f2d48a46b8cd8423b62b, type: 3}
    - time: 0.2
      value: {fileID: 21300000, guid: 0958040e74ea23e43a33f0b73bbcfc43, type: 3}
    - time: 0.21666667
      value: {fileID: 21300000, guid: e765e764a8486a44cb7cdc3a573b5e14, type: 3}
    - time: 0.23333333
      value: {fileID: 21300000, guid: 755db4aaee467c24cb0172dad6d83b5f, type: 3}
    - time: 0.25
      value: {fileID: 21300000, guid: 317b2f2671f5d1c48a220bd307ad514a, type: 3}
    - time: 0.26666668
      value: {fileID: 21300000, guid: 1dd9191641546cf409732489305388ef, type: 3}
    - time: 0.28333333
      value: {fileID: 21300000, guid: af006ce727ec0314c84296261db8ac1c, type: 3}
    - time: 0.3
      value: {fileID: 21300000, guid: f0793cc406d6d6643a0c482681fbff06, type: 3}
    - time: 0.31666666
      value: {fileID: 21300000, guid: 137f4c8a8aa1f984c823dbfea01f2cc0, type: 3}
    - time: 0.33333334
      value: {fileID: 21300000, guid: 6dbf8879ebe4b7048a9105b7a88c44aa, type: 3}
    - time: 0.35
      value: {fileID: 21300000, guid: e6509d527760ecd48b70f3c84c8d1b68, type: 3}
    - time: 0.36666667
      value: {fileID: 21300000, guid: 440ae5a97cc47224aabeb64a13b68603, type: 3}
    - time: 0.38333333
      value: {fileID: 21300000, guid: e4614900d336e694bafffd6242acb636, type: 3}
    - time: 0.4
      value: {fileID: 21300000, guid: 37b13b49858fd784d8224b69d28e7a15, type: 3}
    attribute: m_Sprite
    path: 
    classID: 212
    script: {fileID: 0}
  m_SampleRate: 60
  m_WrapMode: 0
  m_Bounds:
    m_Center: {x: 0, y: 0, z: 0}
    m_Extent: {x: 0, y: 0, z: 0}
  m_ClipBindingConstant:
    genericBindings:
    - serializedVersion: 2
      path: 0
      attribute: 0
      script: {fileID: 0}
      typeID: 212
      customType: 23
      isPPtrCurve: 1
    pptrCurveMapping:
    - {fileID: 21300000, guid: e91f268b0096a8f468f3247d1c0d0626, type: 3}
    - {fileID: 21300000, guid: 813992b61c910e84f95bde301c2f329e, type: 3}
    - {fileID: 21300000, guid: ff1f7523a5d198a4ca90cf7591c4d1da, type: 3}
    - {fileID: 21300000, guid: d757afae24eabbc439ec58f210a0309c, type: 3}
    - {fileID: 21300000, guid: 8ee74175ebb9e354d9cf6dc80ce38b46, type: 3}
    - {fileID: 21300000, guid: 8115ef3d8d5c42548954f349c6ef468e, type: 3}
    - {fileID: 21300000, guid: 45d552385f0f6e04eafee333f3fca5e6, type: 3}
    - {fileID: 21300000, guid: 14330eea7cef74248b3348e52b4facbe, type: 3}
    - {fileID: 21300000, guid: e0157c777b1ca224f8c1f3389d2c386d, type: 3}
    - {fileID: 21300000, guid: 682fc3d1564e33449a4e6272d4d5242f, type: 3}
    - {fileID: 21300000, guid: 1ac4139d0f9440240986b6de9408927b, type: 3}
    - {fileID: 21300000, guid: f07080c4f054f2d48a46b8cd8423b62b, type: 3}
    - {fileID: 21300000, guid: 0958040e74ea23e43a33f0b73bbcfc43, type: 3}
    - {fileID: 21300000, guid: e765e764a8486a44cb7cdc3a573b5e14, type: 3}
    - {fileID: 21300000, guid: 755db4aaee467c24cb0172dad6d83b5f, type: 3}
    - {fileID: 21300000, guid: 317b2f2671f5d1c48a220bd307ad514a, type: 3}
    - {fileID: 21300000, guid: 1dd9191641546cf409732489305388ef, type: 3}
    - {fileID: 21300000, guid: af006ce727ec0314c84296261db8ac1c, type: 3}
    - {fileID: 21300000, guid: f0793cc406d6d6643a0c482681fbff06, type: 3}
    - {fileID: 21300000, guid: 137f4c8a8aa1f984c823dbfea01f2cc0, type: 3}
    - {fileID: 21300000, guid: 6dbf8879ebe4b7048a9105b7a88c44aa, type: 3}
    - {fileID: 21300000, guid: e6509d527760ecd48b70f3c84c8d1b68, type: 3}
    - {fileID: 21300000, guid: 440ae5a97cc47224aabeb64a13b68603, type: 3}
    - {fileID: 21300000, guid: e4614900d336e694bafffd6242acb636, type: 3}
    - {fileID: 21300000, guid: 37b13b49858fd784d8224b69d28e7a15, type: 3}
  m_AnimationClipSettings:
    serializedVersion: 2
    m_AdditiveReferencePoseClip: {fileID: 0}
    m_AdditiveReferencePoseTime: 0
    m_StartTime: 0
    m_StopTime: 0.4166667
    m_OrientationOffsetY: 0
    m_Level: 0
    m_CycleOffset: 0
    m_HasAdditiveReferencePose: 0
    m_LoopTime: 0
    m_LoopBlend: 0
    m_LoopBlendOrientation: 0
    m_LoopBlendPositionY: 0
    m_LoopBlendPositionXZ: 0
    m_KeepOriginalOrientation: 0
    m_KeepOriginalPositionY: 1
    m_KeepOriginalPositionXZ: 0
    m_HeightFromFeet: 0
    m_Mirror: 0
  m_EditorCurves: []
  m_EulerEditorCurves: []
  m_HasGenericRootTransform: 0
  m_HasMotionFloatCurves: 0
  m_Events: []
